{
	"IcoMoonType": "selection",
	"icons": [
		{
			"icon": {
				"paths": [
					"M1024 590.444l-512-397.426-512 397.428v-162.038l512-397.426 512 397.428zM896 576v384h-256v-256h-256v256h-256v-384l384-288z"
				],
				"tags": [
					"home",
					"house",
					"building"
				],
				"grid": 16
			},
			"properties": {
				"id": 0,
				"order": 5,
				"prevSize": 32,
				"code": 58880,
				"name": "home",
				"ligatures": ""
			},
			"setIdx": 0,
			"iconIdx": 0
		},
		{
			"icon": {
				"paths": [
					"M384 640l128-64 448-448-64-64-448 448-64 128zM289.3 867.098c-31.632-66.728-65.666-100.762-132.396-132.394l99.096-272.792 128-77.912 384-384h-192l-384 384-192 640 640-192 384-384v-192l-384 384-77.912 128"
				],
				"tags": [
					"pencil",
					"write",
					"edit",
					"blog",
					"note"
				],
				"grid": 16
			},
			"properties": {
				"id": 6,
				"order": 12,
				"prevSize": 32,
				"code": 58881,
				"name": "pencil",
				"ligatures": ""
			},
			"setIdx": 0,
			"iconIdx": 6
		},
		{
			"icon": {
				"paths": [
					"M992.262 871.396l-242.552-206.294c-25.074-22.566-51.89-32.926-73.552-31.926 57.256-67.068 91.842-154.078 91.842-249.176 0-212.078-171.922-384-384-384-212.076 0-384 171.922-384 384 0 212.078 171.922 384 384 384 95.098 0 182.108-34.586 249.176-91.844-1 21.662 9.36 48.478 31.926 73.552l206.294 242.552c35.322 39.246 93.022 42.554 128.22 7.356s31.892-92.898-7.354-128.22zM384 640c-141.384 0-256-114.616-256-256s114.616-256 256-256 256 114.616 256 256-114.614 256-256 256z"
				],
				"tags": [
					"search",
					"magnifier",
					"lookup",
					"find"
				],
				"grid": 16
			},
			"properties": {
				"id": 127,
				"order": 16,
				"prevSize": 32,
				"code": 58895,
				"name": "search",
				"ligatures": ""
			},
			"setIdx": 0,
			"iconIdx": 127
		},
		{
			"icon": {
				"paths": [
					"M192 128l640 384-640 384z"
				],
				"tags": [
					"play",
					"media control",
					"audio"
				],
				"grid": 16
			},
			"properties": {
				"id": 266,
				"order": 10,
				"prevSize": 32,
				"code": 58882,
				"name": "play",
				"ligatures": ""
			},
			"setIdx": 0,
			"iconIdx": 266
		},
		{
			"icon": {
				"paths": [
					"M128 128h320v768h-320zM576 128h320v768h-320z"
				],
				"tags": [
					"pause",
					"media control",
					"audio"
				],
				"grid": 16
			},
			"properties": {
				"id": 267,
				"order": 11,
				"prevSize": 32,
				"code": 58883,
				"name": "pause",
				"ligatures": ""
			},
			"setIdx": 0,
			"iconIdx": 267
		},
		{
			"icon": {
				"paths": [
					"M576 160v320l320-320v704l-320-320v320l-352-352z"
				],
				"tags": [
					"backward",
					"media control",
					"audio"
				],
				"grid": 16
			},
			"properties": {
				"id": 269,
				"order": 8,
				"prevSize": 32,
				"code": 58884,
				"name": "backward",
				"ligatures": ""
			},
			"setIdx": 0,
			"iconIdx": 269
		},
		{
			"icon": {
				"paths": [
					"M512 864v-320l-320 320v-704l320 320v-320l352 352z"
				],
				"tags": [
					"forward",
					"media control",
					"audio"
				],
				"grid": 16
			},
			"properties": {
				"id": 270,
				"order": 9,
				"prevSize": 32,
				"code": 58885,
				"name": "forward",
				"ligatures": ""
			},
			"setIdx": 0,
			"iconIdx": 270
		},
		{
			"icon": {
				"paths": [
					"M853.344 0h-682.66c-93.872 0-170.684 76.814-170.684 170.688v682.626c0 93.938 76.812 170.686 170.684 170.686l682.66-0.002c93.876 0 170.656-76.746 170.656-170.688v-682.622c0-93.874-76.782-170.688-170.656-170.688zM870.592 512h-166.592v448h-192v-448h-92.526v-146.564h92.526v-95.186c0-129.342 55.792-206.25 207.87-206.25h175.244v158.57h-143.13c-42.482-0.070-47.752 22.152-47.752 63.512l-0.232 79.354h192l-25.408 146.564z"
				],
				"tags": [
					"facebook",
					"social"
				],
				"grid": 16
			},
			"properties": {
				"id": 362,
				"order": 1,
				"prevSize": 32,
				"code": 58886,
				"name": "facebook",
				"ligatures": ""
			},
			"setIdx": 0,
			"iconIdx": 362
		},
		{
			"icon": {
				"paths": [
					"M854 0h-684c-93.5 0-170 76.5-170 170v684c0 93.5 76.5 170 170 170h684c93.5 0 170-76.5 170-170v-684c0-93.5-76.5-170-170-170zM327.8 448h368.4c6.988 20.058 10.8 41.59 10.8 64 0 107.524-87.476 195-195 195-107.524 0-195-87.476-195-195 0-22.41 3.812-43.942 10.8-64zM896 448.050v255.95 128c0 35.2-28.8 64-64 64h-640c-35.2 0-64-28.8-64-64v-128-255.95-0.050h100.108c-4.642 20.602-7.108 42.016-7.108 64 0 160.458 130.542 291 291 291 160.458 0 291-130.542 291-291 0-21.984-2.464-43.398-7.108-64l100.108 0.050zM896 224c0 17.6-14.4 32-32 32h-64c-17.6 0-32-14.4-32-32v-64c0-17.6 14.4-32 32-32h64c17.6 0 32 14.4 32 32v64z"
				],
				"tags": [
					"instagram",
					"social"
				],
				"grid": 16
			},
			"properties": {
				"id": 364,
				"order": 4,
				"prevSize": 32,
				"code": 58887,
				"name": "instagram",
				"ligatures": ""
			},
			"setIdx": 0,
			"iconIdx": 364
		},
		{
			"icon": {
				"paths": [
					"M853.342 0h-682.656c-93.874 0-170.686 76.81-170.686 170.69v682.622c0 93.938 76.812 170.688 170.686 170.688h682.656c93.876 0 170.658-76.75 170.658-170.69v-682.62c0-93.88-76.782-170.69-170.658-170.69zM838.052 341.834c0.328 7.342 0.49 14.728 0.49 22.148 0 226.214-169.216 487.068-478.658 487.068-95.004 0-183.434-28.348-257.886-76.918 13.16 1.588 26.552 2.394 40.13 2.394 78.822 0 151.358-27.37 208.934-73.282-73.616-1.38-135.744-50.876-157.154-118.882 10.274 2 20.812 3.074 31.652 3.074 15.344 0 30.206-2.096 44.32-6.008-76.96-15.732-134.95-84.916-134.95-167.856 0-0.722 0-1.438 0.016-2.152 22.68 12.82 48.624 20.52 76.2 21.41-45.142-30.698-74.842-83.092-74.842-142.488 0-31.37 8.294-60.778 22.778-86.058 82.974 103.57 206.936 171.72 346.754 178.862-2.87-12.532-4.358-25.596-4.358-39.014 0-94.538 75.326-171.18 168.23-171.18 48.39 0 92.118 20.786 122.802 54.058 38.32-7.676 74.324-21.92 106.832-41.542-12.562 39.976-39.234 73.522-73.966 94.71 34.026-4.138 66.452-13.34 96.62-26.954-22.546 34.324-51.070 64.476-83.944 88.61z"
				],
				"tags": [
					"twitter",
					"tweet",
					"social"
				],
				"grid": 16
			},
			"properties": {
				"id": 366,
				"order": 2,
				"prevSize": 32,
				"code": 58888,
				"name": "twitter",
				"ligatures": ""
			},
			"setIdx": 0,
			"iconIdx": 366
		},
		{
			"icon": {
				"paths": [
					"M853.34 0h-682.654c-93.876 0-170.686 76.812-170.686 170.688v682.628c0 93.934 76.812 170.684 170.688 170.684h682.652c93.876 0 170.66-76.748 170.66-170.684v-682.628c0-93.876-76.784-170.688-170.66-170.688zM278.944 831.248c-47.97 0-86.944-38.692-86.944-86.628 0-47.684 38.972-86.812 86.944-86.812 48.158 0 87.060 39.128 87.060 86.812-0.002 47.936-38.904 86.628-87.060 86.628zM497.468 831.996c0-81.81-31.808-158.818-89.46-216.444-57.714-57.75-134.376-89.626-215.904-89.626l-0-125.186c237.652 0 431.126 193.442 431.126 431.254l-125.762 0.002zM719.628 831.996c0-291.062-236.658-527.94-527.376-527.94l-0-125.248c360.002 0 652.946 293.124 652.946 653.192l-125.57-0.004z"
				],
				"tags": [
					"feed",
					"rss",
					"social"
				],
				"grid": 16
			},
			"properties": {
				"id": 369,
				"order": 6,
				"prevSize": 32,
				"code": 58889,
				"name": "feed",
				"ligatures": ""
			},
			"setIdx": 0,
			"iconIdx": 369
		},
		{
			"icon": {
				"paths": [
					"M832 128h-640c-105.6 0-192 86.4-192 192v384c0 105.6 86.4 192 192 192h640c105.6 0 192-86.4 192-192v-384c0-105.6-86.4-192-192-192zM384 768v-512l320 256-320 256z"
				],
				"tags": [
					"youtube",
					"social"
				],
				"grid": 16
			},
			"properties": {
				"id": 371,
				"order": 7,
				"prevSize": 32,
				"code": 58890,
				"name": "youtube",
				"ligatures": ""
			},
			"setIdx": 0,
			"iconIdx": 371
		},
		{
			"icon": {
				"paths": [
					"M852 0h-680c-94.6 0-172 77.4-172 172v680c0 94.6 77.4 172 172 172h680c94.6 0 172-77.4 172-172v-680c0-94.6-77.4-172-172-172zM384 832h-128v-448h128v448zM320 320c-35.346 0-64-28.654-64-64s28.654-64 64-64 64 28.654 64 64-28.654 64-64 64zM832 832h-128v-256c0-35.346-28.654-64-64-64s-64 28.654-64 64v256h-128v-448h128v79.472c26.398-36.264 66.752-79.472 112-79.472 79.53 0 144 71.634 144 160v288z"
				],
				"tags": [
					"linkedin",
					"social"
				],
				"grid": 16
			},
			"properties": {
				"id": 415,
				"order": 3,
				"prevSize": 32,
				"code": 58891,
				"name": "linkedin",
				"ligatures": ""
			},
			"setIdx": 0,
			"iconIdx": 415
		},
		{
			"icon": {
				"paths": [
					"M842.012 589.48c-13.648-13.446-43.914-20.566-89.972-21.172-31.178-0.344-68.702 2.402-108.17 7.928-17.674-10.198-35.892-21.294-50.188-34.658-38.462-35.916-70.568-85.772-90.576-140.594 1.304-5.12 2.414-9.62 3.448-14.212 0 0 21.666-123.060 15.93-164.666-0.79-5.706-1.274-7.362-2.808-11.796l-1.882-4.834c-5.896-13.592-17.448-27.994-35.566-27.208l-10.624-0.338-0.292-0.006c-20.2 0-36.664 10.332-40.986 25.774-13.138 48.434 0.418 120.892 24.982 214.738l-6.288 15.286c-17.588 42.876-39.63 86.060-59.078 124.158l-2.528 4.952c-20.46 40.038-39.024 74.026-55.854 102.822l-17.376 9.188c-1.264 0.668-31.044 16.418-38.028 20.644-59.256 35.382-98.522 75.54-105.036 107.416-2.072 10.17-0.53 23.186 10.014 29.214l16.806 8.458c7.29 3.652 14.978 5.502 22.854 5.502 42.204 0 91.2-52.572 158.696-170.366 77.93-25.368 166.654-46.456 244.414-58.090 59.258 33.368 132.142 56.546 178.142 56.546 8.168 0 15.212-0.778 20.932-2.296 8.822-2.336 16.258-7.366 20.792-14.192 8.926-13.432 10.734-31.932 8.312-50.876-0.722-5.624-5.212-12.576-10.070-17.322zM211.646 814.048c7.696-21.042 38.16-62.644 83.204-99.556 2.832-2.296 9.808-8.832 16.194-14.902-47.102 75.124-78.646 105.066-99.398 114.458zM478.434 199.686c13.566 0 21.284 34.194 21.924 66.254 0.64 32.060-6.858 54.56-16.158 71.208-7.702-24.648-11.426-63.5-11.426-88.904 0 0-0.566-48.558 5.66-48.558zM398.852 637.494c9.45-16.916 19.282-34.756 29.33-53.678 24.492-46.316 39.958-82.556 51.478-112.346 22.91 41.684 51.444 77.12 84.986 105.512 4.184 3.542 8.618 7.102 13.274 10.65-68.21 13.496-127.164 29.91-179.068 49.862zM828.904 633.652c-4.154 2.598-16.054 4.1-23.708 4.1-24.706 0-55.272-11.294-98.126-29.666 16.468-1.218 31.562-1.838 45.1-1.838 24.782 0 32.12-0.108 56.35 6.072s24.538 18.734 20.384 21.332zM903.432 199.43l-142.864-142.862c-31.112-31.112-92.568-56.568-136.568-56.568h-480c-44 0-80 36-80 80v864c0 44 36 80 80 80h736c44 0 80-36 80-80v-608c0-44-25.456-105.458-56.568-136.57zM858.178 244.686c3.13 3.13 6.25 6.974 9.28 11.314h-163.458v-163.456c4.34 3.030 8.184 6.15 11.314 9.28l142.864 142.862zM896 944c0 8.672-7.328 16-16 16h-736c-8.672 0-16-7.328-16-16v-864c0-8.672 7.328-16 16-16h480c4.832 0 10.254 0.61 16 1.704v254.296h254.296c1.094 5.746 1.704 11.166 1.704 16v608z"
				],
				"tags": [
					"file-pdf",
					"file",
					"format",
					"pdf"
				],
				"grid": 16
			},
			"properties": {
				"id": 434,
				"order": 15,
				"prevSize": 32,
				"code": 58892,
				"name": "file-pdf",
				"ligatures": ""
			},
			"setIdx": 0,
			"iconIdx": 434
		},
		{
			"icon": {
				"paths": [
					"M639.778 475.892h44.212l-51.012 226.178-66.326-318.010h-106.55l-77.114 318.010-57.816-318.010h-111.394l113.092 511.882h108.838l76.294-302.708 68.256 302.708h100.336l129.63-511.882h-170.446zM903.432 199.43l-142.864-142.862c-31.112-31.112-92.568-56.568-136.568-56.568h-480c-44 0-80 36-80 80v864c0 44 36 80 80 80h736c44 0 80-36 80-80v-608c0-44-25.456-105.458-56.568-136.57zM858.178 244.686c3.13 3.13 6.25 6.974 9.28 11.314h-163.458v-163.456c4.34 3.030 8.184 6.15 11.314 9.28l142.864 142.862zM896 944c0 8.672-7.328 16-16 16h-736c-8.672 0-16-7.328-16-16v-864c0-8.672 7.328-16 16-16h480c4.832 0 10.254 0.61 16 1.704v254.296h254.296c1.094 5.746 1.704 11.166 1.704 16v608z"
				],
				"tags": [
					"file-word",
					"file",
					"format",
					"word",
					"docx"
				],
				"grid": 16
			},
			"properties": {
				"id": 436,
				"order": 13,
				"prevSize": 32,
				"code": 58893,
				"name": "file-word",
				"ligatures": ""
			},
			"setIdx": 0,
			"iconIdx": 436
		},
		{
			"icon": {
				"paths": [
					"M743.028 384h-135.294l-95.732 141.032-95.74-141.032h-135.288l162.162 242.464-182.974 269.536h262.24v-91.576h-60.556l50.156-74.994 111.396 166.57h140.442l-182.976-269.536zM903.432 199.43l-142.864-142.862c-31.112-31.112-92.568-56.568-136.568-56.568h-480c-44 0-80 36-80 80v864c0 44 36 80 80 80h736c44 0 80-36 80-80v-608c0-44-25.456-105.458-56.568-136.57zM858.178 244.686c3.13 3.13 6.25 6.974 9.28 11.314h-163.458v-163.456c4.34 3.030 8.184 6.15 11.314 9.28l142.864 142.862zM896 944c0 8.672-7.328 16-16 16h-736c-8.672 0-16-7.328-16-16v-864c0-8.672 7.328-16 16-16h480c4.832 0 10.254 0.61 16 1.704v254.296h254.296c1.094 5.746 1.704 11.166 1.704 16v608z"
				],
				"tags": [
					"file-excel",
					"file",
					"format",
					"excel",
					"xlc"
				],
				"grid": 16
			},
			"properties": {
				"id": 437,
				"order": 14,
				"prevSize": 32,
				"code": 58894,
				"name": "file-excel",
				"ligatures": ""
			},
			"setIdx": 0,
			"iconIdx": 437
		}
	],
	"height": 1024,
	"metadata": {
		"name": "icomoon"
	},
	"preferences": {
		"fontPref": {
			"prefix": "icon-",
			"metadata": {
				"fontFamily": "icomoon"
			},
			"showGlyphs": true,
			"metrics": {
				"emSize": 512,
				"baseline": 6.25,
				"whitespace": 50
			},
			"resetPoint": 58880,
			"showQuickUse": true,
			"quickUsageToken": false,
			"showMetrics": true,
			"showMetadata": false
		},
		"imagePref": {
			"color": 0,
			"height": 32,
			"columns": 16,
			"margin": 16,
			"png": false,
			"sprites": true
		},
		"historySize": 100,
		"showCodes": true,
		"gridSize": 16,
		"showLiga": false,
		"showGrid": true,
		"showGlyphs": true,
		"showQuickUse": true,
		"search": ""
	}
}